<svg width="50" height="34" viewBox="0 0 50 34" fill="none" xmlns="http://www.w3.org/2000/svg">
<path d="M25.6709 0C14.8619 -2.44494e-06 4.05335 6.81864 0 17.0127C2.02667 25.168 12.1771 34 25.0126 34C37.8483 34 48.6489 23.1291 50 17.0127C48.649 10.2167 36.4798 0 25.6709 0ZM25.0126 2.72509C32.8477 2.72509 39.1898 9.13068 39.1898 17.0127C39.1898 24.8948 32.8477 31.2749 25.0126 31.2749C17.1776 31.2749 10.8101 24.8948 10.8102 17.0127C10.8102 9.13068 17.1776 2.72509 25.0126 2.72509ZM25.0126 9.52513C20.9085 9.52513 17.5696 12.884 17.5696 17.0127C17.5696 21.1415 20.9085 24.4749 25.0126 24.4749C29.1167 24.4749 32.4303 21.1415 32.4303 17.0127C32.4303 12.884 29.1167 9.52513 25.0126 9.52513Z" fill="#FF9E19"/>
</svg>
