<?xml version="1.0" encoding="UTF-8" standalone="no"?> <!-- Created with Vectornator for iOS (http://vectornator.io/) --><!DOCTYPE svg PUBLIC "-//W3C//DTD SVG 1.1//EN" "http://www.w3.org/Graphics/SVG/1.1/DTD/svg11.dtd">
<svg height="100%" style="fill-rule:nonzero;clip-rule:evenodd;stroke-linecap:round;stroke-linejoin:round;" version="1.1" viewBox="0 0 176 127" width="100%" xml:space="preserve" xmlns="http://www.w3.org/2000/svg" xmlns:vectornator="http://vectornator.io" xmlns:xlink="http://www.w3.org/1999/xlink">
<metadata>
<vectornator:setting key="IsTimeLapseWatermarkDisabled" value="false"/>
<vectornator:setting key="UndoHistoryDisabled" value="true"/>
<vectornator:setting key="VNDimensionsVisible" value="true"/>
<vectornator:setting key="VNSnapToGuides" value="true"/>
<vectornator:setting key="WDCMYKEnabledKey" value="false"/>
<vectornator:setting key="WDDisplayWhiteBackground" value="false"/>
<vectornator:setting key="WDDynamicGuides" value="false"/>
<vectornator:setting key="WDGuidesVisible" value="true"/>
<vectornator:setting key="WDIsolateActiveLayer" value="false"/>
<vectornator:setting key="WDOutlineMode" value="false"/>
<vectornator:setting key="WDRulersVisible" value="true"/>
<vectornator:setting key="WDSnapToEdges" value="false"/>
<vectornator:setting key="WDSnapToGrid" value="false"/>
<vectornator:setting key="WDSnapToPoints" value="false"/>
<vectornator:setting key="WDUnits" value="Points"/>
</metadata>
<defs/>
<g id="Untitled" vectornator:layerName="Untitled">
<path d="M46.9837 0.0036438C37.994 12.665 14.8076 37.7135 2.06943 47.176C-0.973934 49.879-0.542621 53.9289 2.5899 59.5679C5.72911 65.2192 8.13377 70.3096 13.7763 71.089C19.4189 71.8681 22.0222 68.971 20.3738 69.2521C12.9885 69.5352 11.7464 68.1046 19.2449 63.873C26.7434 59.6411 44.231 50.937 50.4951 39.6624C55.0973 31.3789 52.5917 21.8656 50.605 12.3957C49.6973 8.06791 47.4524-0.198601 46.9837 0.0036438ZM44.3962 13.1143L46.6685 22.4065L40.4815 27.706L37.8719 19.6334L44.3962 13.1143ZM33.2096 23.6043L35.5261 31.626L30.1381 36.1778L27.6752 29.2232L33.2096 23.6043ZM23.8412 32.8458L25.6738 39.3939L20.8576 43.0962L19.1496 37.3538L23.8412 32.8458ZM14.2968 41.1796L15.8655 46.7694L11.9583 50.4863L10.4189 45.2595L14.2968 41.1796ZM6.66567 48.8313L7.92655 52.8603L5.05296 55.8438L3.73345 51.8948L6.66567 48.8313Z" fill="#ff9e19" opacity="1"/>
<path d="M40.8544 55.9637C39.9017 55.9206 38.7442 54.3937 40.7563 54.2483C42.7682 54.103 46.2136 54.1011 47.7143 54.7198C49.215 55.3388 48.9932 56.4256 49.0295 57.0368C49.0655 57.648 49.5121 68.7963 49.5121 70.0759C49.5121 71.3558 47.7465 73.1704 45.7657 74.0434C43.7848 74.9165 28.8496 81.4721 26.2016 84.2857C23.5535 87.0996 25.5994 86.0005 26.3937 85.709C27.1882 85.4175 29.4596 84.9645 30.0038 86.8073C30.5481 88.65 28.6593 108.1 28.6123 108.713C28.5656 109.327 28.2141 108.913 27.6909 107.881C27.1675 106.849 15.6122 83.5605 14.0663 80.0197C12.5203 76.4792 15.6913 73.5826 17.8387 72.5139C19.9862 71.445 39.1908 61.2723 42.8101 58.3408C43.6158 57.8892 44.884 56.2923 43.2128 56.1674C41.5413 56.0428 41.8068 56.0067 40.8544 55.9637Z" fill="#ff9e19" opacity="1"/>
<path d="M69.5161 52.75L69.5161 109L57.1382 109L57.1382 52.75L69.5161 52.75ZM90.1704 69.376L90.1704 109L77.7925 109L77.7925 69.376L90.1704 69.376ZM77.0601 59.1587C77.0601 57.4009 77.6948 55.9604 78.9644 54.8374C80.2339 53.7144 81.8818 53.1528 83.9082 53.1528C85.9346 53.1528 87.5825 53.7144 88.8521 54.8374C90.1216 55.9604 90.7563 57.4009 90.7563 59.1587C90.7563 60.9165 90.1216 62.3569 88.8521 63.48C87.5825 64.603 85.9346 65.1646 83.9082 65.1646C81.8818 65.1646 80.2339 64.603 78.9644 63.48C77.6948 62.3569 77.0601 60.9165 77.0601 59.1587ZM114.523 100.211C115.671 100.211 116.647 100.003 117.453 99.5884C118.283 99.1489 118.906 98.5386 119.321 97.7573C119.76 96.9517 119.968 95.9873 119.943 94.8643L131.552 94.8643C131.577 97.8428 130.844 100.455 129.355 102.701C127.89 104.923 125.888 106.656 123.349 107.901C120.834 109.122 117.99 109.732 114.816 109.732C111.716 109.732 109.006 109.232 106.687 108.231C104.367 107.206 102.426 105.79 100.864 103.983C99.3257 102.152 98.166 100.016 97.3848 97.5742C96.6279 95.1328 96.2495 92.4839 96.2495 89.6274L96.2495 88.7852C96.2495 85.9287 96.6279 83.2798 97.3848 80.8384C98.166 78.3726 99.3257 76.2363 100.864 74.4297C102.426 72.5986 104.355 71.1826 106.65 70.1816C108.969 69.1562 111.667 68.6436 114.743 68.6436C118.039 68.6436 120.944 69.2661 123.459 70.5112C125.998 71.7563 127.988 73.563 129.428 75.9312C130.869 78.2993 131.577 81.168 131.552 84.5371L119.943 84.5371C119.968 83.3408 119.785 82.2666 119.394 81.3145C119.003 80.3623 118.393 79.6055 117.563 79.0439C116.757 78.458 115.72 78.165 114.45 78.165C113.181 78.165 112.155 78.4458 111.374 79.0073C110.593 79.5688 109.995 80.3501 109.58 81.3511C109.189 82.3276 108.92 83.4507 108.774 84.7202C108.652 85.9897 108.591 87.3447 108.591 88.7852L108.591 89.6274C108.591 91.0923 108.652 92.4717 108.774 93.7656C108.92 95.0352 109.201 96.1582 109.616 97.1348C110.031 98.0869 110.629 98.8438 111.411 99.4053C112.192 99.9424 113.229 100.211 114.523 100.211ZM149.277 52.7134L149.277 109L136.936 109L136.936 52.7134L149.277 52.7134ZM174.619 69.376L157.407 89.5542L148.398 98.563L143.015 90.7261L150.522 80.9482L159.824 69.376L174.619 69.376ZM161.398 109L150.815 90.9458L159.934 84.4639L175.534 109L161.398 109Z" fill="#ffffff" opacity="1"/>
</g>
</svg>
